username,email,date_created,date_birth,sex,country,clockcredit,friends,achievements,awards,skills,user_type,user_id
VirusClock,virus.tick.tock@gmail.com,,,male,canada,10,,,,web development,admin,1000
GirClock,girclock@gmail.com,,,male,united states,12,,,,music,admin,1001
Pineappleclock,pineappleclock@gmail.com,,,male,united states,14,,,,programming,admin,1002
BananaClock,bananaclock@gmail.com,,,female,south africa,5,,,,steak,user,1003
AnimeClock,animeclock@gmail.com,,,male,united states,11,,,,character design,moderator,1004